<?xml version="1.0" standalone="no"?>
<!DOCTYPE svg PUBLIC "-//W3C//DTD SVG 1.1//EN" "http://www.w3.org/Graphics/SVG/1.1/DTD/svg11.dtd">
<svg xmlns="http://www.w3.org/2000/svg">
<metadata>Generated by Fontastic.me</metadata>
<defs>
<font id="social" horiz-adv-x="512">
<font-face font-family="social" units-per-em="512" ascent="480" descent="-32"/>
<missing-glyph horiz-adv-x="512" />

<glyph glyph-name="instagram" unicode="&#97;" d="M353 204c0-25-21-45-46-45l-103 0c-26 0-46 20-46 45l0 104c0 25 20 46 46 46l103 0c25 0 46-21 46-46z m-47 172l-101 0c-38 0-69-31-69-69l0-101c0-38 31-69 69-69l101 0c38 0 69 31 69 69l0 101c0 38-31 69-69 69z m-51-160c-22 0-40 18-40 40 0 22 18 40 40 40 22 0 40-18 40-40 0-22-18-40-40-40z m0 102c-34 0-62-28-62-62 0-34 28-62 62-62 35 0 62 28 62 62 0 34-27 62-62 62z m64 17c-8 0-14-7-14-15 0-8 6-14 14-14 8 0 15 6 15 14 0 8-7 15-15 15z"/>
<glyph glyph-name="spotify" unicode="&#98;" d="M346 274c-3-5-11-7-16-3-41 23-108 26-147 14-6-2-12 2-14 8-2 6 2 12 8 14 44 13 118 11 165-17 5-3 7-11 4-16z m-17-39c-4-4-9-6-14-3-34 21-86 27-125 15-5-2-11 1-12 6-1 5 1 11 6 12 46 14 103 7 142-17 4-2 6-8 3-13z m-16-34c-2-4-7-6-10-3-30 18-67 22-111 12-5-1-9 2-10 6-1 4 2 8 6 9 48 11 89 6 122-14 5-2 5-7 3-10z m-58 182c-69 0-126-57-126-126 0-70 57-127 126-127 70 0 126 57 126 127 0 69-56 126-126 126z"/>
<glyph glyph-name="youtube" unicode="&#99;" d="M377 213l0 87c0 0 0 42-42 42l-159 0c0 0-42 0-42-42l0-87c0 0 0-41 42-41l159 0c0 0 42 0 42 41z m-75 44l-79-47 0 93z"/>
<glyph glyph-name="facebook" unicode="&#100;" d="M311 299l-38 0 0 25c0 10 7 12 11 12 4 0 27 0 27 0l0 41-37 1c-42 0-51-31-51-51l0-28-24 0 0-42 24 0c0-55 0-121 0-121l50 0c0 0 0 66 0 121l34 0z"/>
</font></defs></svg>
